\relax 
\providecommand\babel@aux[2]{}
\@nameuse{bbl@beforestart}
\citation{feferman1967first}
\citation{feferman1967first}
\babel@aux{english}{}
\@writefile{toc}{\contentsline {section}{\numberline {1}Using Hintikka sentences to construct reduction sequences for Feferman-Vaught theorem}{1}{}\protected@file@percent }
\newlabel{feferman-vaught}{{1.1}{1}}
\citation{dawar2007model}
\newlabel{main-theorem}{{1.3}{2}}
\@writefile{toc}{\contentsline {section}{\numberline {2}Preliminaries}{2}{}\protected@file@percent }
\@writefile{toc}{\contentsline {subsection}{\numberline {2.1}Encoding numbers by trees}{2}{}\protected@file@percent }
\newlabel{tree-encoding}{{2.1}{2}}
\citation{flum2006}
\citation{flum2006}
\newlabel{tree-height-power}{{2.1}{3}}
\newlabel{encoding}{{2.2}{3}}
\citation{dawar2007model}
\citation{dawar2007model}
\newlabel{succ}{{2.3}{4}}
\newlabel{max}{{2.4}{4}}
\@writefile{toc}{\contentsline {section}{\numberline {3}Lower bound of the reduction sequences}{4}{}\protected@file@percent }
\newlabel{proof}{{3}{4}}
\newlabel{upper-bound-formula}{{3.1}{4}}
\bibstyle{amsplain}
\bibdata{refs}
\bibcite{dawar2007model}{1}
\bibcite{feferman1967first}{2}
\bibcite{flum2006}{3}
\gdef \@abspage@last{5}
